module github.com/daeuniverse/softwind

go 1.18

require (
	github.com/dgryski/go-camellia v0.0.0-20191119043421-69a8a13fb23d
	github.com/dgryski/go-idea v0.0.0-20170306091226-d2fb45a411fb
	github.com/dgryski/go-rc2 v0.0.0-20150621095337-8a9021637152
	github.com/eknkc/basex v1.0.1
	github.com/golang/protobuf v1.5.3
	github.com/google/uuid v1.3.0
	github.com/mzz2017/disk-bloom v1.0.1
	github.com/mzz2017/quic-go v0.0.0-20230902042923-a727c1c479d4
	github.com/refraction-networking/utls v1.3.2
	github.com/seiflotfy/cuckoofilter v0.0.0-20220411075957-e3b120b3f5fb
	gitlab.com/yawning/chacha20.git v0.0.0-20230427033715-7877545b1b37
	golang.org/x/crypto v0.11.0
	golang.org/x/exp v0.0.0-20230626212559-97b1e661b5df
	golang.org/x/net v0.12.0
	golang.org/x/sys v0.10.0
	google.golang.org/grpc v1.57.0

)

require (
	github.com/andybalholm/brotli v1.0.5 // indirect
	github.com/dgryski/go-metro v0.0.0-20211217172704-adc40b04c140 // indirect
	github.com/ebfe/rc2 v0.0.0-20131011165748-24b9757f5521 // indirect
	github.com/gaukas/godicttls v0.0.4 // indirect
	github.com/go-task/slim-sprig v0.0.0-20230315185526-52ccab3ef572 // indirect
	github.com/golang/mock v1.6.0 // indirect
	github.com/google/pprof v0.0.0-20230705174524-200ffdc848b8 // indirect
	github.com/klauspost/compress v1.16.7 // indirect
	github.com/onsi/ginkgo/v2 v2.11.0 // indirect
	github.com/quic-go/qtls-go1-20 v0.3.3 // indirect
	github.com/stretchr/testify v1.8.2 // indirect
	golang.org/x/mod v0.12.0 // indirect
	golang.org/x/text v0.11.0 // indirect
	golang.org/x/tools v0.11.0 // indirect
	google.golang.org/genproto/googleapis/rpc v0.0.0-20230706204954-ccb25ca9f130 // indirect
	google.golang.org/protobuf v1.31.0 // indirect
)
